{
    "level.name": "CauseYouAreSoPretty",
    "music.artist": "CAI XUKUN (SWIN)",
    "music.coverPath": "../assets/cover/CauseYouAreSoPretty.jpg",
    "level.difficulty": 3,
    "level.musicPath": "../assets/music/CauseYouAreSoPretty.ogg",
    "timeline.musicTime": 219.0,
    "timeline.speed": 1.0,
    "timeline.hitNum": 677,
    "timeline.melody": [70,102,133,157,216,234,250,295,314,349,369,414,443,477,520,543,572,606,659,679,697,714,749,771,804,822,865,884,912,943,962,980,995,1027,1060,1148,1168,1202,1221,1244,1263,1298,1340,1378,1405,1435,1459,1502,1554,1576,1594,1641,1660,1697,1716,1735,1757,1779,1804,1825,1846,1864,1883,1901,1920,1936,1960,1976,1994,2013,2034,2057,2076,2100,2118,2154,2173,2193,2215,2235,2258,2276,2300,2323,2350,2386,2416,2612,2628,2648,2689,2708,2744,2762,2797,2851,2869,2892,2913,2941,2968,2995,3017,3069,3094,3120,3145,3168,3195,3220,3241,3288,3324,3349,3373,3397,3418,3448,3465,3499,3517,3538,3561,3584,3602,3627,3650,3674,3704,3726,3849,3873,3891,3911,3940,4057,4079,4107,4126,4149,4179,4204,4290,4312,4344,4359,4391,4497,4519,4549,4571,4590,4625,4651,4706,4752,4808,4837,4895,4923,4977,4997,5021,5040,5069,5191,5212,5235,5255,5281,5326,5411,5439,5460,5480,5501,5526,5555,5601,5656,5709,5763,5820,5875,5932,5984,6038,6103,6156,6207,6251,6274,6302,6331,6364,6387,6417,6443,6490,6508,6526,6551,6584,6601,6638,6656,6674,6696,6717,6736,6779,6801,6826,6858,6890,6943,6962,6976,7028,7043,7085,7104,7125,7155,7178,7221,7239,7260,7280,7311,7343,7398,7420,7437,7476,7497,7529,7550,7567,7601,7624,7649,7679,7707,7739,7762,7789,7843,7860,7883,7924,7945,7963,7988,8010,8039,8063,8086,8108,8127,8145,8163,8181,8200,8238,8336,8356,8383,8402,8423,8441,8570,8599,8629,8685,8773,8792,8826,8851,8882,9033,9055,9083,9139,9225,9243,9276,9295,9319,9341,9478,9502,9531,9585,9671,9692,9723,9752,9780,9809,9840,9865,9893,9928,9975,10029,10072,10093,10113,10138,10166,10191,10213,10235,10259,10286,10307,10324,10344,10359,10390,10409,10431,10452,10472,10515,10534,10553,10574,10606,10634,10657,10681,10707,10731,10758,10783,10808,10835,10863,10886,10935,10958,10986,11010,11037,11061,11084,11111,11136,11164,11183,11204,11220,11239,11257,11278,11296,11317,11338,11385,11402,11422,11442,11466,11496,11513,11535,11556,11587,11612,11630,11651,11670,11691,11712,11734,11754,11776,11793,11874,11933,11952,11970,11993,12023,12135,12157,12179,12201,12226,12256,12282,12365,12382,12416,12434,12459,12575,12596,12629,12649,12667,12701,12728,12782,12833,12883,12905,12972,13000,13051,13069,13086,13107,13134,13260,13284,13305,13324,13344,13371,13398,13489,13509,13528,13551,13572,13601,13633,13683,13733,13787,13843,13893,13952,14005,14035,14093,14234,14266,14295,14320,14351,14379,14406,14437,14462,14488,14520,14574,14593,14611,14632,14669,14689,14716,14742,14784,14802,14847,14888,14913,14943,14971,15020,15038,15053,15071,15113,15129,15167,15188,15220,15247,15269,15301,15322,15341,15359,15389,15420,15471,15489,15506,15553,15570,15607,15624,15668,15688,15707,15734,15763,15787,15823,15857,15913,15934,15952,15997,16015,16056,16073,16094,16117,16136,16158,16178,16198,16219,16240,16261,16282,16306,16331,16359,16392,16427,16474,16527,16586,16649,16710,16761,16821,16881,16937,16993,17046,17098,17157,17210,17265,17320,17376,17434,17493,17548,17609,17661,17715,17744,17771,17797,17828,17854,17884,17911,17941,17966,17998,18040,18065,18087,18109,18159,18182,18204,18222,18247,18263,18284,18317,18335,18353,18376,18395,18415,18447,18481,18526,18554,18620,18643,18659,18696,18716,18748,18766,18782,18803,18822,18842,18860,18879,18898,18917,18938,18965,19009,19062,19086,19102,19126,19157,19178,19198,19217,19250,19272,19299,19330,19358,19385,19415,19450,19505,19525,19541,19587,19605,19640,19659,19677,19697,19718,19739,19761,19783,19806,19830,19852,19902,19954,19996,20012,20042,20063,20089,20108,20171,20195,20215,20237,20260,20284,20309,20353,20404,20435,20459,20494,20526,20548,20584,20608,20630,20653,20677,20700,20720,20747,20795,20884,20901,20939,20959,20978,20995,21134,21160,21191,21249,21298,21337,21356,21377,21403,21430,21468,21496,21525,21554,21584,21639,21693],
    "timeline.friends": [58,128,175,189,304,424,509,548]
}
