{
    "level.name": "Lemon",
    "music.artist": "Hachi",
    "music.coverPath": "../assets/cover/Lemon.jpg",
    "level.difficulty": 2,
    "level.musicPath": "../assets/music/Lemon.ogg",
    "timeline.musicTime": 255.0,
    "timeline.speed": 1.35,
    "timeline.hitNum": 553,
    "timeline.melody": [160,179,198,226,248,294,330,358,377,431,468,487,510,555,590,702,727,750,804,841,861,880,971,992,1015,1063,1091,1122,1144,1161,1261,1280,1308,1345,1390,1426,1453,1481,1531,1567,1592,1630,1673,1702,1791,1817,1841,1901,1940,1963,1988,2019,2051,2080,2117,2173,2194,2239,2261,2600,2652,2674,2708,2731,2777,2807,2840,2863,2909,2947,2978,3004,3048,3081,3187,3209,3231,3277,3322,3344,3366,3415,3448,3490,3549,3588,3611,3633,3725,3753,3803,3837,3879,3915,3949,3969,4013,4051,4087,4109,4152,4184,4288,4310,4334,4393,4430,4451,4473,4525,4563,4597,4618,4670,4723,4744,4865,4918,4940,4975,5003,5045,5078,5144,5200,5222,5258,5280,5317,5360,5425,5475,5504,5531,5555,5575,5610,5642,5671,5704,5775,5802,5844,5910,5934,5956,5976,6004,6053,6074,6122,6142,6187,6208,6230,6253,6276,6327,6347,6396,6417,6465,6485,6507,6528,6551,6599,6620,6669,6691,6732,6762,6808,6832,6876,6899,6949,7009,7039,7064,7088,7114,7159,7179,7223,7248,7290,7315,7339,7362,7382,7427,7449,7497,7600,7621,7643,7673,7705,7735,7770,7802,7838,7858,7900,7920,7977,8000,8049,8141,8162,8185,8216,8250,8282,8323,8353,8390,8410,8457,8480,8524,8547,8595,9819,9838,9861,9898,9948,9979,10016,10037,10081,10120,10152,10176,10217,10260,10365,10386,10407,10462,10494,10518,10537,10603,10627,10652,10676,10727,10748,10779,10806,10911,10933,10953,10984,11006,11051,11085,11118,11140,11185,11222,11257,11278,11323,11359,11461,11487,11509,11562,11600,11623,11642,11674,11702,11730,11771,11793,11839,11862,11911,12046,12106,12127,12156,12179,12200,12234,12262,12323,12376,12397,12430,12455,12475,12525,12602,12653,12676,12704,12726,12745,12780,12810,12841,12879,12943,12981,13011,13081,13107,13126,13146,13166,13220,13241,13290,13313,13358,13380,13401,13425,13445,13497,13520,13565,13589,13634,13657,13679,13705,13729,13774,13796,13839,13861,13905,13926,13976,14004,14048,14074,14118,14180,14205,14227,14250,14281,14327,14350,14398,14421,14466,14492,14515,14536,14560,14597,14621,14659,14779,14798,14818,14851,14881,14909,14944,14978,15015,15034,15075,15095,15115,15155,15176,15225,15313,15336,15360,15395,15425,15453,15493,15528,15560,15582,15628,15653,15698,15724,15770,15917,15984,16048,16121,16180,16248,16317,16383,16457,16526,16600,16739,16802,16871,16946,17009,17067,17148,17282,17356,17426,17493,17569,17639,17709,17844,17912,17989,18044,18110,18189,18249,18377,18393,18414,18459,18521,18598,18668,18737,18804,18946,19009,19083,19153,19221,19286,19351,19482,19500,19516,19558,19630,19694,19768,19844,19916,20043,20118,20187,20250,20323,20398,20465,20520,21092,21110,21129,21155,21189,21229,21251,21294,21314,21359,21382,21406,21429,21453,21499,21521,21562,21584,21632,21654,21680,21705,21725,21774,21793,21836,21861,21907,21934,21980,22004,22047,22071,22119,22187,22209,22229,22251,22268,22322,22348,22392,22417,22464,22485,22505,22531,22551,22597,22620,22667,22774,22796,22837,22879,22909,22948,22979,23016,23035,23080,23101,23152,23172,23218,23314,23335,23356,23392,23421,23458,23494,23530,23564,23584,23630,23650,23699,23724,23769,23880,23900,23922,23952,23979,24010,24051,24083,24120,24140,24188,24210,24254,24277,24323],
    "timeline.friends": []
}
